lab2/simulation/qsim/lab2.msim.vcd
$comment
	File created using the following command:
		vcd file lab2.msim.vcd -direction
$end
$date
	Fri Mar 07 22:17:12 2025
$end
$version
	ModelSim Version 10.1d
$end
$timescale
	1ps
$end
$scope module part3_vlg_vec_tst $end
$var reg 4 ! KEY [3:0] $end
$var reg 10 " SW [9:0] $end
$var wire 1 # HEX0 [6] $end
$var wire 1 $ HEX0 [5] $end
$var wire 1 % HEX0 [4] $end
$var wire 1 & HEX0 [3] $end
$var wire 1 ' HEX0 [2] $end
$var wire 1 ( HEX0 [1] $end
$var wire 1 ) HEX0 [0] $end
$var wire 1 * HEX1 [6] $end
$var wire 1 + HEX1 [5] $end
$var wire 1 , HEX1 [4] $end
$var wire 1 - HEX1 [3] $end
$var wire 1 . HEX1 [2] $end
$var wire 1 / HEX1 [1] $end
$var wire 1 0 HEX1 [0] $end
$var wire 1 1 HEX2 [6] $end
$var wire 1 2 HEX2 [5] $end
$var wire 1 3 HEX2 [4] $end
$var wire 1 4 HEX2 [3] $end
$var wire 1 5 HEX2 [2] $end
$var wire 1 6 HEX2 [1] $end
$var wire 1 7 HEX2 [0] $end
$var wire 1 8 HEX3 [6] $end
$var wire 1 9 HEX3 [5] $end
$var wire 1 : HEX3 [4] $end
$var wire 1 ; HEX3 [3] $end
$var wire 1 < HEX3 [2] $end
$var wire 1 = HEX3 [1] $end
$var wire 1 > HEX3 [0] $end
$var wire 1 ? sampler $end
$scope module i1 $end
$var wire 1 @ gnd $end
$var wire 1 A vcc $end
$var wire 1 B unknown $end
$var tri1 1 C devclrn $end
$var tri1 1 D devpor $end
$var tri1 1 E devoe $end
$var wire 1 F KEY[1]~input_o $end
$var wire 1 G KEY[2]~input_o $end
$var wire 1 H KEY[3]~input_o $end
$var wire 1 I SW[2]~input_o $end
$var wire 1 J SW[3]~input_o $end
$var wire 1 K SW[4]~input_o $end
$var wire 1 L SW[5]~input_o $end
$var wire 1 M SW[6]~input_o $end
$var wire 1 N SW[7]~input_o $end
$var wire 1 O SW[8]~input_o $end
$var wire 1 P SW[9]~input_o $end
$var wire 1 Q ~QUARTUS_CREATED_GND~I_combout $end
$var wire 1 R KEY[0]~input_o $end
$var wire 1 S KEY[0]~inputCLKENA0_outclk $end
$var wire 1 T SW[1]~input_o $end
$var wire 1 U SW[0]~input_o $end
$var wire 1 V Q~3_combout $end
$var wire 1 W Q~2_combout $end
$var wire 1 X Q~1_combout $end
$var wire 1 Y Q~0_combout $end
$var wire 1 Z Q [3] $end
$var wire 1 [ Q [2] $end
$var wire 1 \ Q [1] $end
$var wire 1 ] Q [0] $end
$upscope $end
$upscope $end
$enddefinitions $end
#0
$dumpvars
b0 !
b0 "
0)
0(
0'
0&
0%
0$
1#
00
0/
0.
0-
0,
0+
1*
07
06
05
04
03
02
11
0>
0=
0<
0;
0:
09
18
x?
0@
1A
xB
1C
1D
1E
0F
0G
0H
0I
0J
0K
0L
0M
0N
0O
0P
0Q
0R
0S
0T
0U
0V
0W
0X
0Y
0]
0\
0[
0Z
$end
#20000
b10 "
1T
0?
#25000
b1000 !
b1100 !
b1110 !
b1111 !
1R
1F
1G
1H
1S
1?
#50000
b11 "
b111 !
b11 !
b1 !
b0 !
0R
0F
0G
0H
1U
0S
0?
1V
#60000
b1 "
0T
1?
0V
#75000
b1000 !
b1100 !
b1110 !
b1111 !
1R
1F
1G
1H
1S
0?
#100000
b111 !
b11 !
b1 !
b0 !
0R
0F
0G
0H
0S
1?
#125000
b1000 !
b1100 !
b1110 !
b1111 !
1R
1F
1G
1H
1S
0?
#150000
b11 "
b111 !
b11 !
b1 !
b0 !
0R
0F
0G
0H
1T
0S
1?
1V
#175000
b1000 !
b1100 !
b1110 !
b1111 !
1R
1F
1G
1H
1S
0?
1]
0V
1W
1$
1%
1&
1)
#200000
b111 !
b11 !
b1 !
b0 !
0R
0F
0G
0H
0S
1?
#220000
b1 "
0T
0?
1V
0W
#225000
b1000 !
b1100 !
b1110 !
b1111 !
1R
1F
1G
1H
1S
1?
#250000
b111 !
b11 !
b1 !
b0 !
0R
0F
0G
0H
0S
0?
#275000
b1000 !
b1100 !
b1110 !
b1111 !
1R
1F
1G
1H
1S
1?
#300000
b111 !
b11 !
b1 !
b0 !
0R
0F
0G
0H
0S
0?
#325000
b1000 !
b1100 !
b1110 !
b1111 !
1R
1F
1G
1H
1S
1?
#350000
b111 !
b11 !
b1 !
b0 !
0R
0F
0G
0H
0S
0?
#375000
b1000 !
b1100 !
b1110 !
b1111 !
1R
1F
1G
1H
1S
1?
#400000
b111 !
b11 !
b1 !
b0 !
0R
0F
0G
0H
0S
0?
#425000
b1000 !
b1100 !
b1110 !
b1111 !
1R
1F
1G
1H
1S
1?
#430000
b11 "
1T
0?
0V
1W
#450000
b111 !
b11 !
b1 !
b0 !
0R
0F
0G
0H
0S
1?
#475000
b1000 !
b1100 !
b1110 !
b1111 !
1R
1F
1G
1H
1S
0?
1\
0]
1V
1+
1,
1-
10
0$
0%
0&
0)
#490000
b1 "
0T
1?
0V
#500000
b111 !
b11 !
b1 !
b0 !
0R
0F
0G
0H
0S
0?
#525000
b1000 !
b1100 !
b1110 !
b1111 !
1R
1F
1G
1H
1S
1?
#550000
b111 !
b11 !
b1 !
b0 !
0R
0F
0G
0H
0S
0?
#575000
b1000 !
b1100 !
b1110 !
b1111 !
1R
1F
1G
1H
1S
1?
#600000
b111 !
b11 !
b1 !
b0 !
0R
0F
0G
0H
0S
0?
#625000
b1000 !
b1100 !
b1110 !
b1111 !
1R
1F
1G
1H
1S
1?
#650000
b111 !
b11 !
b1 !
b0 !
0R
0F
0G
0H
0S
0?
#675000
b1000 !
b1100 !
b1110 !
b1111 !
1R
1F
1G
1H
1S
1?
#700000
b11 "
b111 !
b11 !
b1 !
b0 !
0R
0F
0G
0H
1T
0S
0?
1V
#725000
b1000 !
b1100 !
b1110 !
b1111 !
1R
1F
1G
1H
1S
1?
1]
0V
0W
1X
1$
1%
1&
1)
#750000
b111 !
b11 !
b1 !
b0 !
0R
0F
0G
0H
0S
0?
#770000
b1 "
0T
1?
1V
1W
0X
#775000
b1000 !
b1100 !
b1110 !
b1111 !
1R
1F
1G
1H
1S
0?
#800000
b111 !
b11 !
b1 !
b0 !
0R
0F
0G
0H
0S
1?
#825000
b1000 !
b1100 !
b1110 !
b1111 !
1R
1F
1G
1H
1S
0?
#850000
b111 !
b11 !
b1 !
b0 !
0R
0F
0G
0H
0S
1?
#875000
b1000 !
b1100 !
b1110 !
b1111 !
1R
1F
1G
1H
1S
0?
#900000
b111 !
b11 !
b1 !
b0 !
0R
0F
0G
0H
0S
1?
#925000
b1000 !
b1100 !
b1110 !
b1111 !
1R
1F
1G
1H
1S
0?
#930000
b0 "
0U
1?
0V
0W
#950000
b111 !
b11 !
b1 !
b0 !
0R
0F
0G
0H
0S
0?
#975000
b1000 !
b1100 !
b1110 !
b1111 !
1R
1F
1G
1H
1S
1?
0\
0]
0+
0,
0-
00
0$
0%
0&
0)
